%!PS-Adobe-2.0 EPSF-2.0
%%Title: bob_star_merge.fig
%%Creator: fig2dev Version 3.2 Patchlevel 5-alpha5
%%CreationDate: Mon Aug 30 10:49:29 2004
%%For: boo@hige (Walter Landry,,,)
%%BoundingBox: 0 0 959 1093
%Magnification: 1.0000
%%EndComments
/$F2psDict 200 dict def
$F2psDict begin
$F2psDict /mtrx matrix put
/col-1 {0 setgray} bind def
/col0 {0.000 0.000 0.000 srgb} bind def
/col1 {0.000 0.000 1.000 srgb} bind def
/col2 {0.000 1.000 0.000 srgb} bind def
/col3 {0.000 1.000 1.000 srgb} bind def
/col4 {1.000 0.000 0.000 srgb} bind def
/col5 {1.000 0.000 1.000 srgb} bind def
/col6 {1.000 1.000 0.000 srgb} bind def
/col7 {1.000 1.000 1.000 srgb} bind def
/col8 {0.000 0.000 0.560 srgb} bind def
/col9 {0.000 0.000 0.690 srgb} bind def
/col10 {0.000 0.000 0.820 srgb} bind def
/col11 {0.530 0.810 1.000 srgb} bind def
/col12 {0.000 0.560 0.000 srgb} bind def
/col13 {0.000 0.690 0.000 srgb} bind def
/col14 {0.000 0.820 0.000 srgb} bind def
/col15 {0.000 0.560 0.560 srgb} bind def
/col16 {0.000 0.690 0.690 srgb} bind def
/col17 {0.000 0.820 0.820 srgb} bind def
/col18 {0.560 0.000 0.000 srgb} bind def
/col19 {0.690 0.000 0.000 srgb} bind def
/col20 {0.820 0.000 0.000 srgb} bind def
/col21 {0.560 0.000 0.560 srgb} bind def
/col22 {0.690 0.000 0.690 srgb} bind def
/col23 {0.820 0.000 0.820 srgb} bind def
/col24 {0.500 0.190 0.000 srgb} bind def
/col25 {0.630 0.250 0.000 srgb} bind def
/col26 {0.750 0.380 0.000 srgb} bind def
/col27 {1.000 0.500 0.500 srgb} bind def
/col28 {1.000 0.630 0.630 srgb} bind def
/col29 {1.000 0.750 0.750 srgb} bind def
/col30 {1.000 0.880 0.880 srgb} bind def
/col31 {1.000 0.840 0.000 srgb} bind def

end
save
newpath 0 1093 moveto 0 0 lineto 959 0 lineto 959 1093 lineto closepath clip newpath
-141.0 1163.0 translate
1 -1 scale

/cp {closepath} bind def
/ef {eofill} bind def
/gr {grestore} bind def
/gs {gsave} bind def
/sa {save} bind def
/rs {restore} bind def
/l {lineto} bind def
/m {moveto} bind def
/rm {rmoveto} bind def
/n {newpath} bind def
/s {stroke} bind def
/sh {show} bind def
/slc {setlinecap} bind def
/slj {setlinejoin} bind def
/slw {setlinewidth} bind def
/srgb {setrgbcolor} bind def
/rot {rotate} bind def
/sc {scale} bind def
/sd {setdash} bind def
/ff {findfont} bind def
/sf {setfont} bind def
/scf {scalefont} bind def
/sw {stringwidth} bind def
/tr {translate} bind def
/tnt {dup dup currentrgbcolor
  4 -2 roll dup 1 exch sub 3 -1 roll mul add
  4 -2 roll dup 1 exch sub 3 -1 roll mul add
  4 -2 roll dup 1 exch sub 3 -1 roll mul add srgb}
  bind def
/shd {dup dup currentrgbcolor 4 -2 roll mul 4 -2 roll mul
  4 -2 roll mul srgb} bind def
/$F2psBegin {$F2psDict begin /$F2psEnteredState save def} def
/$F2psEnd {$F2psEnteredState restore end} def

$F2psBegin
10 setmiterlimit
0 slj 0 slc
 0.06299 0.06299 sc
%
% Fig objects follow
%
% 
% here starts figure with depth 50
% Polyline
0 slj
0 slc
30.000 slw
gs  clippath
9263 7380 m 9735 7380 l 9735 7200 l 9263 7200 l 9263 7200 l 9623 7290 l 9263 7380 l cp
eoclip
n 8550 7290 m
 9720 7290 l gs col0 s gr gr

% arrowhead
n 9263 7380 m 9623 7290 l 9263 7200 l 9263 7380 l  cp gs 0.00 setgray ef gr  col0 s
% Polyline
gs  clippath
14310 7913 m 14310 8385 l 14490 8385 l 14490 7913 l 14490 7913 l 14400 8273 l 14310 7913 l cp
eoclip
n 14400 7650 m
 14400 8370 l gs col0 s gr gr

% arrowhead
n 14310 7913 m 14400 8273 l 14490 7913 l 14310 7913 l  cp gs 0.00 setgray ef gr  col0 s
% Polyline
gs  clippath
14310 9263 m 14310 9735 l 14490 9735 l 14490 9263 l 14490 9263 l 14400 9623 l 14310 9263 l cp
eoclip
n 14400 9000 m
 14400 9720 l gs col0 s gr gr

% arrowhead
n 14310 9263 m 14400 9623 l 14490 9263 l 14310 9263 l  cp gs 0.00 setgray ef gr  col0 s
% Polyline
gs  clippath
14310 10613 m 14310 11085 l 14490 11085 l 14490 10613 l 14490 10613 l 14400 10973 l 14310 10613 l cp
eoclip
n 14400 10350 m
 14400 11070 l gs col0 s gr gr

% arrowhead
n 14310 10613 m 14400 10973 l 14490 10613 l 14310 10613 l  cp gs 0.00 setgray ef gr  col0 s
% Polyline
gs  clippath
14310 11963 m 14310 12435 l 14490 12435 l 14490 11963 l 14490 11963 l 14400 12323 l 14310 11963 l cp
eoclip
n 14400 11700 m
 14400 12420 l gs col0 s gr gr

% arrowhead
n 14310 11963 m 14400 12323 l 14490 11963 l 14310 11963 l  cp gs 0.00 setgray ef gr  col0 s
% Polyline
gs  clippath
9173 12780 m 9645 12780 l 9645 12600 l 9173 12600 l 9173 12600 l 9533 12690 l 9173 12780 l cp
eoclip
n 8550 14040 m 9000 14040 l 9000 12690 l
 9630 12690 l gs col0 s gr gr

% arrowhead
n 9173 12780 m 9533 12690 l 9173 12600 l 9173 12780 l  cp gs 0.00 setgray ef gr  col0 s
% Polyline
gs  clippath
14310 13313 m 14310 13785 l 14490 13785 l 14490 13313 l 14490 13313 l 14400 13673 l 14310 13313 l cp
eoclip
n 14400 13050 m
 14400 13770 l gs col0 s gr gr

% arrowhead
n 14310 13313 m 14400 13673 l 14490 13313 l 14310 13313 l  cp gs 0.00 setgray ef gr  col0 s
% Polyline
gs  clippath
14310 14663 m 14310 15135 l 14490 15135 l 14490 14663 l 14490 14663 l 14400 15023 l 14310 14663 l cp
eoclip
n 14400 14400 m
 14400 15120 l gs col0 s gr gr

% arrowhead
n 14310 14663 m 14400 15023 l 14490 14663 l 14310 14663 l  cp gs 0.00 setgray ef gr  col0 s
% Polyline
gs  clippath
14310 16013 m 14310 16485 l 14490 16485 l 14490 16013 l 14490 16013 l 14400 16373 l 14310 16013 l cp
eoclip
n 14400 15750 m
 14400 16470 l gs col0 s gr gr

% arrowhead
n 14310 16013 m 14400 16373 l 14490 16013 l 14310 16013 l  cp gs 0.00 setgray ef gr  col0 s
% Polyline
gs  clippath
9007 18045 m 8535 18045 l 8535 18225 l 9007 18225 l 9007 18225 l 8647 18135 l 9007 18045 l cp
eoclip
n 9675 16740 m 9225 16740 l 9225 18135 l
 8550 18135 l gs col0 s gr gr

% arrowhead
n 9007 18045 m 8647 18135 l 9007 18225 l 9007 18045 l  cp gs 0.00 setgray ef gr  col0 s
% Polyline
7.500 slw
n 9675 16425 m 17325 16425 l 17325 17100 l 9675 17100 l
 cp gs col0 s gr 
% Polyline
n 9675 15075 m 17325 15075 l 17325 15750 l 9675 15750 l
 cp gs col0 s gr 
% Polyline
n 9675 13725 m 17325 13725 l 17325 14400 l 9675 14400 l
 cp gs col0 s gr 
% Polyline
n 9675 12375 m 17325 12375 l 17325 13050 l 9675 13050 l
 cp gs col0 s gr 
% Polyline
n 9675 11025 m 17325 11025 l 17325 11700 l 9675 11700 l
 cp gs col0 s gr 
% Polyline
n 9675 9675 m 17325 9675 l 17325 10350 l 9675 10350 l
 cp gs col0 s gr 
% Polyline
n 9675 8325 m 17325 8325 l 17325 9000 l 9675 9000 l
 cp gs col0 s gr 
% Polyline
n 9675 6975 m 17325 6975 l 17325 7650 l 9675 7650 l
 cp gs col0 s gr 
/Times-Roman ff 555.62 scf sf
9900 16875 m
gs 1 -1 sc (alice@bar.org/sort.bob.quick,7) col0 sh gr
/Times-Roman ff 555.62 scf sf
9900 15525 m
gs 1 -1 sc (alice@bar.org/sort.bob.quick,6) col0 sh gr
/Times-Roman ff 555.62 scf sf
9900 14175 m
gs 1 -1 sc (alice@bar.org/sort.bob.quick,5) col0 sh gr
/Times-Roman ff 555.62 scf sf
9900 12825 m
gs 1 -1 sc (alice@bar.org/sort.bob.quick,4) col0 sh gr
/Times-Roman ff 555.62 scf sf
9900 11475 m
gs 1 -1 sc (alice@bar.org/sort.bob.quick,3) col0 sh gr
/Times-Roman ff 555.62 scf sf
9900 10125 m
gs 1 -1 sc (alice@bar.org/sort.bob.quick,2) col0 sh gr
/Times-Roman ff 555.62 scf sf
9900 8775 m
gs 1 -1 sc (alice@bar.org/sort.bob.quick,1) col0 sh gr
/Times-Roman ff 555.62 scf sf
9900 7425 m
gs 1 -1 sc (alice@bar.org/sort.bob.quick,0) col0 sh gr
% Polyline
30.000 slw
gs  clippath
6210 2018 m 6210 2490 l 6390 2490 l 6390 2018 l 6390 2018 l 6300 2378 l 6210 2018 l cp
eoclip
n 6300 1800 m
 6300 2475 l gs col0 s gr gr

% arrowhead
n 6210 2018 m 6300 2378 l 6390 2018 l 6210 2018 l  cp gs 0.00 setgray ef gr  col0 s
% Polyline
gs  clippath
6210 3368 m 6210 3840 l 6390 3840 l 6390 3368 l 6390 3368 l 6300 3728 l 6210 3368 l cp
eoclip
n 6300 3150 m
 6300 3825 l gs col0 s gr gr

% arrowhead
n 6210 3368 m 6300 3728 l 6390 3368 l 6210 3368 l  cp gs 0.00 setgray ef gr  col0 s
% Polyline
gs  clippath
6210 4718 m 6210 5190 l 6390 5190 l 6390 4718 l 6390 4718 l 6300 5078 l 6210 4718 l cp
eoclip
n 6300 4500 m
 6300 5175 l gs col0 s gr gr

% arrowhead
n 6210 4718 m 6300 5078 l 6390 4718 l 6210 4718 l  cp gs 0.00 setgray ef gr  col0 s
% Polyline
gs  clippath
6210 6518 m 6210 6990 l 6390 6990 l 6390 6518 l 6390 6518 l 6300 6878 l 6210 6518 l cp
eoclip
n 6300 6300 m
 6300 6975 l gs col0 s gr gr

% arrowhead
n 6210 6518 m 6300 6878 l 6390 6518 l 6210 6518 l  cp gs 0.00 setgray ef gr  col0 s
% Polyline
gs  clippath
6210 7868 m 6210 8340 l 6390 8340 l 6390 7868 l 6390 7868 l 6300 8228 l 6210 7868 l cp
eoclip
n 6300 7650 m
 6300 8325 l gs col0 s gr gr

% arrowhead
n 6210 7868 m 6300 8228 l 6390 7868 l 6210 7868 l  cp gs 0.00 setgray ef gr  col0 s
% Polyline
gs  clippath
6210 9218 m 6210 9690 l 6390 9690 l 6390 9218 l 6390 9218 l 6300 9578 l 6210 9218 l cp
eoclip
n 6300 9000 m
 6300 9675 l gs col0 s gr gr

% arrowhead
n 6210 9218 m 6300 9578 l 6390 9218 l 6210 9218 l  cp gs 0.00 setgray ef gr  col0 s
% Polyline
gs  clippath
6210 10568 m 6210 11040 l 6390 11040 l 6390 10568 l 6390 10568 l 6300 10928 l 6210 10568 l cp
eoclip
n 6300 10350 m
 6300 11025 l gs col0 s gr gr

% arrowhead
n 6210 10568 m 6300 10928 l 6390 10568 l 6210 10568 l  cp gs 0.00 setgray ef gr  col0 s
% Polyline
gs  clippath
6210 11918 m 6210 12390 l 6390 12390 l 6390 11918 l 6390 11918 l 6300 12278 l 6210 11918 l cp
eoclip
n 6300 11700 m
 6300 12375 l gs col0 s gr gr

% arrowhead
n 6210 11918 m 6300 12278 l 6390 11918 l 6210 11918 l  cp gs 0.00 setgray ef gr  col0 s
% Polyline
gs  clippath
6210 13268 m 6210 13740 l 6390 13740 l 6390 13268 l 6390 13268 l 6300 13628 l 6210 13268 l cp
eoclip
n 6300 13050 m
 6300 13725 l gs col0 s gr gr

% arrowhead
n 6210 13268 m 6300 13628 l 6390 13268 l 6210 13268 l  cp gs 0.00 setgray ef gr  col0 s
% Polyline
gs  clippath
6210 14618 m 6210 15090 l 6390 15090 l 6390 14618 l 6390 14618 l 6300 14978 l 6210 14618 l cp
eoclip
n 6300 14400 m
 6300 15075 l gs col0 s gr gr

% arrowhead
n 6210 14618 m 6300 14978 l 6390 14618 l 6210 14618 l  cp gs 0.00 setgray ef gr  col0 s
% Polyline
gs  clippath
6210 15968 m 6210 16440 l 6390 16440 l 6390 15968 l 6390 15968 l 6300 16328 l 6210 15968 l cp
eoclip
n 6300 15750 m
 6300 16425 l gs col0 s gr gr

% arrowhead
n 6210 15968 m 6300 16328 l 6390 15968 l 6210 15968 l  cp gs 0.00 setgray ef gr  col0 s
% Polyline
gs  clippath
6210 17318 m 6210 17790 l 6390 17790 l 6390 17318 l 6390 17318 l 6300 17678 l 6210 17318 l cp
eoclip
n 6300 17100 m
 6300 17775 l gs col0 s gr gr

% arrowhead
n 6210 17318 m 6300 17678 l 6390 17318 l 6210 17318 l  cp gs 0.00 setgray ef gr  col0 s
% Polyline
7.500 slw
n 2250 17775 m 8550 17775 l 8550 18450 l 2250 18450 l
 cp gs col0 s gr 
% Polyline
n 2250 16425 m 8550 16425 l 8550 17100 l 2250 17100 l
 cp gs col0 s gr 
% Polyline
n 2250 15075 m 8550 15075 l 8550 15750 l 2250 15750 l
 cp gs col0 s gr 
% Polyline
n 2250 13725 m 8550 13725 l 8550 14400 l 2250 14400 l
 cp gs col0 s gr 
% Polyline
n 2250 12375 m 8550 12375 l 8550 13050 l 2250 13050 l
 cp gs col0 s gr 
% Polyline
n 2250 11025 m 8550 11025 l 8550 11700 l 2250 11700 l
 cp gs col0 s gr 
% Polyline
n 2250 9675 m 8550 9675 l 8550 10350 l 2250 10350 l
 cp gs col0 s gr 
% Polyline
n 2250 8325 m 8550 8325 l 8550 9000 l 2250 9000 l
 cp gs col0 s gr 
% Polyline
n 2250 6975 m 8550 6975 l 8550 7650 l 2250 7650 l
 cp gs col0 s gr 
% Polyline
n 2250 3825 m 8325 3825 l 8325 4500 l 2250 4500 l
 cp gs col0 s gr 
% Polyline
n 2250 2475 m 8325 2475 l 8325 3150 l 2250 3150 l
 cp gs col0 s gr 
% Polyline
n 2250 1125 m 8325 1125 l 8325 1800 l 2250 1800 l
 cp gs col0 s gr 
/Times-Roman ff 635.00 scf sf
6075 5850 m
gs 1 -1 sc (...) col0 sh gr
/Times-Roman ff 555.62 scf sf
2475 1575 m
gs 1 -1 sc (bob@foo.org/sort.bob,0) col0 sh gr
/Times-Roman ff 555.62 scf sf
2475 2925 m
gs 1 -1 sc (bob@foo.org/sort.bob,1) col0 sh gr
/Times-Roman ff 555.62 scf sf
2475 4275 m
gs 1 -1 sc (bob@foo.org/sort.bob,2) col0 sh gr
/Times-Roman ff 555.62 scf sf
2475 7425 m
gs 1 -1 sc (bob@foo.org/sort.bob,22) col0 sh gr
/Times-Roman ff 555.62 scf sf
2475 8775 m
gs 1 -1 sc (bob@foo.org/sort.bob,23) col0 sh gr
/Times-Roman ff 555.62 scf sf
2475 10125 m
gs 1 -1 sc (bob@foo.org/sort.bob,24) col0 sh gr
/Times-Roman ff 555.62 scf sf
2475 11475 m
gs 1 -1 sc (bob@foo.org/sort.bob,25) col0 sh gr
/Times-Roman ff 555.62 scf sf
2475 12825 m
gs 1 -1 sc (bob@foo.org/sort.bob,26) col0 sh gr
/Times-Roman ff 555.62 scf sf
2475 14175 m
gs 1 -1 sc (bob@foo.org/sort.bob,27) col0 sh gr
/Times-Roman ff 555.62 scf sf
2475 15525 m
gs 1 -1 sc (bob@foo.org/sort.bob,28) col0 sh gr
/Times-Roman ff 555.62 scf sf
2475 16875 m
gs 1 -1 sc (bob@foo.org/sort.bob,29) col0 sh gr
/Times-Roman ff 555.62 scf sf
2475 18225 m
gs 1 -1 sc (bob@foo.org/sort.bob,30) col0 sh gr
% here ends figure;
$F2psEnd
rs
showpage
%%Trailer
%EOF
