#FIG 3.2  Produced by xfig version 3.2.5-alpha5
Landscape
Center
Metric
A4      
100.00
Single
-2
1200 2
2 1 0 3 0 7 50 -1 -1 0.000 0 0 -1 1 0 2
	1 1 3.00 180.00 360.00
	 6300 1800 6300 2475
2 1 0 3 0 7 50 -1 -1 0.000 0 0 -1 1 0 2
	1 1 3.00 180.00 360.00
	 6300 3150 6300 3825
2 1 0 3 0 7 50 -1 -1 0.000 0 0 -1 1 0 2
	1 1 3.00 180.00 360.00
	 6300 4500 6300 5175
2 1 0 3 0 7 50 -1 -1 0.000 0 0 -1 1 0 2
	1 1 3.00 180.00 360.00
	 6300 6300 6300 6975
2 2 0 1 0 7 50 -1 -1 0.000 0 0 -1 0 0 5
	 2250 6975 8550 6975 8550 7650 2250 7650 2250 6975
2 2 0 1 0 7 50 -1 -1 0.000 0 0 -1 0 0 5
	 2250 3825 8325 3825 8325 4500 2250 4500 2250 3825
2 2 0 1 0 7 50 -1 -1 0.000 0 0 -1 0 0 5
	 2250 2475 8325 2475 8325 3150 2250 3150 2250 2475
2 2 0 1 0 7 50 -1 -1 0.000 0 0 -1 0 0 5
	 2250 1125 8325 1125 8325 1800 2250 1800 2250 1125
4 0 0 50 -1 0 40 0.0000 4 75 495 6075 5850 ...\001
4 0 0 50 -1 0 35 0.0000 4 525 5730 2475 1575 bob@foo.org/sort.bob,0\001
4 0 0 50 -1 0 35 0.0000 4 525 5730 2475 2925 bob@foo.org/sort.bob,1\001
4 0 0 50 -1 0 35 0.0000 4 525 5730 2475 4275 bob@foo.org/sort.bob,2\001
4 0 0 50 -1 0 35 0.0000 4 525 6030 2475 7425 bob@foo.org/sort.bob,22\001
